…
# Combine age groups above 100
frmort <- set.upperage(fr.mort, 100)
# Create tibble
frmort <- tibble(
      year = rep(frmort$year, rep(length(frmort$age), length(frmort$year))),
      age = rep(frmort$age, length(frmort$year)),
      female = c(frmort$rate$female),
      male = c(frmort$rate$male),
    ) %>%
  gather(male, female, key = "sex", value = "mortrate")
frmort

## # A tibble: 38,582 x 4
##     year   age sex   mortrate
##    <int> <dbl> <chr>    <dbl>
##  1  1816     0 male   0.223  
##  2  1816     1 male   0.0467 
##  3  1816     2 male   0.0343 
##  4  1816     3 male   0.0232 
##  5  1816     4 male   0.0161 
##  6  1816     5 male   0.0136 
##  7  1816     6 male   0.0116 
##  8  1816     7 male   0.00991
##  9  1816     8 male   0.00838
## 10  1816     9 male   0.00710
## # … with 38,572 more rows
…
pedestrian

## # A tibble: 8,783 x 6
##    date        hour day    daytype month   number
##    <date>     <dbl> <ord>  <chr>   <ord>    <dbl>
##  1 2016-01-01     0 Friday Holiday January   3643
##  2 2016-01-01     1 Friday Holiday January   2009
##  3 2016-01-01     2 Friday Holiday January   3238
##  4 2016-01-01     3 Friday Holiday January   2164
##  5 2016-01-01     4 Friday Holiday January   1161
##  6 2016-01-01     5 Friday Holiday January    682
##  7 2016-01-01     6 Friday Holiday January    388
##  8 2016-01-01     7 Friday Holiday January    373
##  9 2016-01-01     8 Friday Holiday January    275
## 10 2016-01-01     9 Friday Holiday January    545
## # … with 8,773 more rows
…
