…
The fable package for doing tidy forecasting in R is now on CRAN. Like tsibble and feasts, it is also part of the tidyverts family of packages for analysing, modelling and forecasting many related time series (stored as tsibbles).

For a brief introduction to tsibbles, see this post from last month.

Here we will forecast Australian tourism data by state/region and purpose. This data is stored in the tourism tsibble where Trips contains domestic visitor nights in thousands.

library(tidyverse)
library(tsibble)
library(lubridate)
library(fable)
tourism

## # A tsibble: 24,320 x 5 [1Q]
## # Key:       Region, State, Purpose [304]
##    Quarter Region   State           Purpose  Trips
##      <qtr> <chr>    <chr>           <chr>    <dbl>
##  1 1998 Q1 Adelaide South Australia Business  135.
##  2 1998 Q2 Adelaide South Australia Business  110.
##  3 1998 Q3 Adelaide South Australia Business  166.
##  4 1998 Q4 Adelaide South Australia Business  127.
##  5 1999 Q1 Adelaide South Australia Business  137.
##  6 1999 Q2 Adelaide South Australia Business  200.
##  7 1999 Q3 Adelaide South Australia Business  169.
##  8 1999 Q4 Adelaide South Australia Business  134.
##  9 2000 Q1 Adelaide South Australia Business  154.
## 10 2000 Q2 Adelaide South Australia Business  169.
## # … with 24,310 more rows
…
Forecasting a single time series

Although the fable package is designed to handle many time series, we will be begin by demonstrating its use on a single time series. For this purpose, we will extract the tourism data for holidays in the Snowy Mountains region of NSW.

snowy <- tourism %>%
  filter(
    Region == "Snowy Mountains",
    Purpose == "Holiday"
  )
snowy

## # A tsibble: 80 x 5 [1Q]
## # Key:       Region, State, Purpose [1]
##    Quarter Region          State Purpose Trips
##      <qtr> <chr>           <chr> <chr>   <dbl>
##  1 1998 Q1 Snowy Mountains NSW   Holiday 101. 
##  2 1998 Q2 Snowy Mountains NSW   Holiday 112. 
##  3 1998 Q3 Snowy Mountains NSW   Holiday 310. 
##  4 1998 Q4 Snowy Mountains NSW   Holiday  89.8
##  5 1999 Q1 Snowy Mountains NSW   Holiday 112. 
##  6 1999 Q2 Snowy Mountains NSW   Holiday 103. 
##  7 1999 Q3 Snowy Mountains NSW   Holiday 254. 
##  8 1999 Q4 Snowy Mountains NSW   Holiday  74.9
##  9 2000 Q1 Snowy Mountains NSW   Holiday 118. 
## 10 2000 Q2 Snowy Mountains NSW   Holiday 114. 
## # … with 70 more rows
…
## # A mable: 1 x 6
## # Key:     Region, State, Purpose [1]
##   Region       State Purpose   snaive          ets                    arima
##   <chr>        <chr> <chr>    <model>      <model>                  <model>
## 1 Snowy Mount… NSW   Holiday <SNAIVE> <ETS(M,N,A)> <ARIMA(1,0,0)(0,1,2)[4]>

The returned object is called a “mable” or model table, where each cell corresponds to a fitted model. Because we have only fitted models to one time series, this mable has only one row.

To forecast all models, we pass the object to the forecast function.

fc <- fit %>%
  forecast(h = 12)
fc

## # A fable: 36 x 7 [1Q]
## # Key:     Region, State, Purpose, .model [3]
##    Region          State Purpose .model Quarter        Trips .mean
##    <chr>           <chr> <chr>   <chr>    <qtr>       <dist> <dbl>
##  1 Snowy Mountains NSW   Holiday snaive 2018 Q1  N(119, 666) 119. 
##  2 Snowy Mountains NSW   Holiday snaive 2018 Q2  N(124, 666) 124. 
##  3 Snowy Mountains NSW   Holiday snaive 2018 Q3  N(378, 666) 378. 
##  4 Snowy Mountains NSW   Holiday snaive 2018 Q4   N(85, 666)  84.7
##  5 Snowy Mountains NSW   Holiday snaive 2019 Q1 N(119, 1331) 119. 
##  6 Snowy Mountains NSW   Holiday snaive 2019 Q2 N(124, 1331) 124. 
##  7 Snowy Mountains NSW   Holiday snaive 2019 Q3 N(378, 1331) 378. 
##  8 Snowy Mountains NSW   Holiday snaive 2019 Q4  N(85, 1331)  84.7
##  9 Snowy Mountains NSW   Holiday snaive 2020 Q1 N(119, 1997) 119. 
## 10 Snowy Mountains NSW   Holiday snaive 2020 Q2 N(124, 1997) 124. 
## # … with 26 more rows
…
If you want to compute the prediction intervals, the hilo() function can be used:

hilo(fc, level = 95)

## # A tsibble: 36 x 8 [1Q]
## # Key:       Region, State, Purpose, .model [3]
##    Region    State Purpose .model Quarter        Trips .mean          `95%`
##    <chr>     <chr> <chr>   <chr>    <qtr>       <dist> <dbl>         <hilo>
##  1 Snowy Mo… NSW   Holiday snaive 2018 Q1  N(119, 666) 119.  [ 68.5, 170]95
##  2 Snowy Mo… NSW   Holiday snaive 2018 Q2  N(124, 666) 124.  [ 73.9, 175]95
##  3 Snowy Mo… NSW   Holiday snaive 2018 Q3  N(378, 666) 378.  [327.6, 429]95
##  4 Snowy Mo… NSW   Holiday snaive 2018 Q4   N(85, 666)  84.7 [ 34.1, 135]95
##  5 Snowy Mo… NSW   Holiday snaive 2019 Q1 N(119, 1331) 119.  [ 47.5, 191]95
##  6 Snowy Mo… NSW   Holiday snaive 2019 Q2 N(124, 1331) 124.  [ 53.0, 196]95
##  7 Snowy Mo… NSW   Holiday snaive 2019 Q3 N(378, 1331) 378.  [306.6, 450]95
##  8 Snowy Mo… NSW   Holiday snaive 2019 Q4  N(85, 1331)  84.7 [ 13.1, 156]95
##  9 Snowy Mo… NSW   Holiday snaive 2020 Q1 N(119, 1997) 119.  [ 31.4, 207]95
## 10 Snowy Mo… NSW   Holiday snaive 2020 Q2 N(124, 1997) 124.  [ 36.9, 212]95
## # … with 26 more rows

Forecasting many series

To scale this up to include all series in the tourism data set requires no more work — we use exactly the same code.

fit <- tourism %>%
  model(
    snaive = SNAIVE(Trips ~ lag("year")),
    ets = ETS(Trips),
    arima = ARIMA(Trips)
  )
fit

## # A mable: 304 x 6
## # Key:     Region, State, Purpose [304]
##    Region         State Purpose    snaive          ets
##    <chr>          <chr> <chr>     <model>      <model>
##  1 Adelaide       SA    Business <SNAIVE> <ETS(M,N,M)>
##  2 Adelaide       SA    Holiday  <SNAIVE> <ETS(A,N,A)>
##  3 Adelaide       SA    Other    <SNAIVE> <ETS(M,A,N)>
##  4 Adelaide       SA    Visiting <SNAIVE> <ETS(A,N,A)>
##  5 Adelaide Hills SA    Business <SNAIVE> <ETS(A,N,N)>
##  6 Adelaide Hills SA    Holiday  <SNAIVE> <ETS(A,A,N)>
##  7 Adelaide Hills SA    Other    <SNAIVE> <ETS(A,N,N)>
##  8 Adelaide Hills SA    Visiting <SNAIVE> <ETS(M,A,M)>
##  9 Alice Springs  NT    Business <SNAIVE> <ETS(M,N,M)>
## 10 Alice Springs  NT    Holiday  <SNAIVE> <ETS(M,N,A)>
## # … with 294 more rows, and 1 more variable: arima <model>
…
When the mable is passed to the forecast() function, forecasts are computed for every model and every key combination.

fc <- fit %>%
  forecast(h = "3 years")
fc

## # A fable: 10,944 x 7 [1Q]
## # Key:     Region, State, Purpose, .model [912]
##    Region   State Purpose  .model Quarter        Trips .mean
##    <chr>    <chr> <chr>    <chr>    <qtr>       <dist> <dbl>
##  1 Adelaide SA    Business snaive 2018 Q1 N(129, 2018)  129.
##  2 Adelaide SA    Business snaive 2018 Q2 N(174, 2018)  174.
##  3 Adelaide SA    Business snaive 2018 Q3 N(185, 2018)  185.
##  4 Adelaide SA    Business snaive 2018 Q4 N(197, 2018)  197.
##  5 Adelaide SA    Business snaive 2019 Q1 N(129, 4036)  129.
##  6 Adelaide SA    Business snaive 2019 Q2 N(174, 4036)  174.
##  7 Adelaide SA    Business snaive 2019 Q3 N(185, 4036)  185.
##  8 Adelaide SA    Business snaive 2019 Q4 N(197, 4036)  197.
##  9 Adelaide SA    Business snaive 2020 Q1 N(129, 6054)  129.
## 10 Adelaide SA    Business snaive 2020 Q2 N(174, 6054)  174.
## # … with 10,934 more rows
…
Now to check the accuracy, we use the accuracy() function. By default it computes several point forecasting accuracy measures such as MAE, RMSE, MAPE and MASE for every key combination.

accuracy(fc, tourism)

## # A tibble: 1,216 x 13
##    .model Region State Purpose .type    ME  RMSE   MAE      MPE  MAPE  MASE
##    <chr>  <chr>  <chr> <chr>   <chr> <dbl> <dbl> <dbl>    <dbl> <dbl> <dbl>
##  1 arima  Adela… SA    Busine… Test  22.5  28.5  25.3    11.9    14.0 0.765
##  2 arima  Adela… SA    Holiday Test  21.9  34.8  28.0     9.93   14.8 1.31 
##  3 arima  Adela… SA    Other   Test   4.71 17.5  14.6     0.529  20.2 1.11 
##  4 arima  Adela… SA    Visiti… Test  32.8  37.1  32.8    13.7    13.7 1.05 
##  5 arima  Adela… SA    Busine… Test   1.31  5.58  3.57 -Inf     Inf   1.09 
##  6 arima  Adela… SA    Holiday Test   6.46  7.43  6.46   37.4    37.4 1.14 
##  7 arima  Adela… SA    Other   Test   1.35  2.79  1.93  -31.0    99.4 1.71 
##  8 arima  Adela… SA    Visiti… Test   8.37 12.6  10.4    -3.98   72.3 1.35 
##  9 arima  Alice… NT    Busine… Test   9.85 12.2  10.7    34.4    44.3 1.74 
## 10 arima  Alice… NT    Holiday Test   4.80 11.3   9.30    4.46   35.2 1.00 
## # … with 1,206 more rows, and 2 more variables: RMSSE <dbl>, ACF1 <dbl>
…
