…
In my last post, I showed how the feasts package can be used to produce various time series graphics.

The feasts package also includes functions for computing FEatures And Statistics from Time Series (hence the name). In this post I will give three examples of how these might be used.

library(tidyverse)
library(tsibble)
library(feasts)

Exploring Australian tourism data

I used this example in my talk at useR!2019 in Toulouse, and it is also the basis of a vignette in the package, and a recent blog post by Mitchell O’Hara-Wild. The data set contains domestic tourist visitor nights in Australia, disaggregated by State, Region and Purpose.

tourism

## # A tsibble: 24,320 x 5 [1Q]
## # Key:       Region, State, Purpose [304]
##    Quarter Region   State           Purpose  Trips
##      <qtr> <chr>    <chr>           <chr>    <dbl>
##  1 1998 Q1 Adelaide South Australia Business  135.
##  2 1998 Q2 Adelaide South Australia Business  110.
##  3 1998 Q3 Adelaide South Australia Business  166.
##  4 1998 Q4 Adelaide South Australia Business  127.
##  5 1999 Q1 Adelaide South Australia Business  137.
##  6 1999 Q2 Adelaide South Australia Business  200.
##  7 1999 Q3 Adelaide South Australia Business  169.
##  8 1999 Q4 Adelaide South Australia Business  134.
##  9 2000 Q1 Adelaide South Australia Business  154.
## 10 2000 Q2 Adelaide South Australia Business  169.
## # … with 24,310 more rows

An example of a feature would be the autocorrelation function at lag 1 — it is a numerical summary capturing some aspect of the time series. Autocorrelations at other lags are also features, as are the autocorrelations of the first differenced series, or the seasonally differenced series, etc. Another example of a feature is the strength of seasonality of a time series, as measured by \(1-\text{Var}(R_t)/\text{Var}(S_t+R_t)\) where \(S_t\) is the seasonal component and \(R_t\) is the remainder component in an STL decomposition. Values close to 1 indicate a highly seasonal time series, while values close to 0 indicate a time series with little seasonality.

The feasts package has some inbuilt feature calculation functions. For example coef_hurst will calculate the Hurst coefficient of a time series and feat_spectral will compute the spectral entropy of a time series. To apply these to all series in the tourism data set, we can use the features function like this.

tourism %>% features(Trips, list(coef_hurst, feat_spectral))

## # A tibble: 304 x 5
##    Region         State              Purpose  coef_hurst spectral_entropy
##    <chr>          <chr>              <chr>         <dbl>            <dbl>
##  1 Adelaide       South Australia    Business      0.571            0.843
##  2 Adelaide       South Australia    Holiday       0.558            0.753
##  3 Adelaide       South Australia    Other         0.862            0.793
##  4 Adelaide       South Australia    Visiting      0.583            0.768
##  5 Adelaide Hills South Australia    Business      0.555            0.991
##  6 Adelaide Hills South Australia    Holiday       0.651            0.928
##  7 Adelaide Hills South Australia    Other         0.672            0.913
##  8 Adelaide Hills South Australia    Visiting      0.653            1    
##  9 Alice Springs  Northern Territory Business      0.713            0.944
## 10 Alice Springs  Northern Territory Holiday       0.500            0.544
## # … with 294 more rows

There are also functions which produce collections of features based on tags. For example, feature_set(tags="acf") will produce 7 features based on various autocorrelation coefficients, while feature_set(tags="stl") produces 7 features based on an STL decomposition of a time series, including the strength of seasonality mentioned above.

tourism %>% features(Trips, feature_set(tags="stl"))

## # A tibble: 304 x 12
##    Region    State     Purpose trend_strength seasonal_strengt… seasonal_peak_y…
##    <chr>     <chr>     <chr>            <dbl>             <dbl>            <dbl>
##  1 Adelaide  South Au… Busine…          0.451             0.380                3
##  2 Adelaide  South Au… Holiday          0.541             0.601                1
##  3 Adelaide  South Au… Other            0.743             0.189                2
##  4 Adelaide  South Au… Visiti…          0.433             0.446                1
##  5 Adelaide… South Au… Busine…          0.453             0.140                3
##  6 Adelaide… South Au… Holiday          0.512             0.244                2
##  7 Adelaide… South Au… Other            0.584             0.374                2
##  8 Adelaide… South Au… Visiti…          0.481             0.228                0
##  9 Alice Sp… Northern… Busine…          0.526             0.224                0
## 10 Alice Sp… Northern… Holiday          0.377             0.827                3
## # … with 294 more rows, and 6 more variables: seasonal_trough_year <dbl>,
## #   spikiness <dbl>, linearity <dbl>, curvature <dbl>, stl_e_acf1 <dbl>,
## #   stl_e_acf10 <dbl>
…
