…
The ACF is commonly used to assess the dynamic information in a time series. This is computed using the ACF() function for all series. This also produces a tsibble, but with the index being the lag.

holidays %>% ACF(Trips)

## # A tsibble: 152 x 3 [1Q]
## # Key:       State [8]
##    State   lag      acf
##    <chr> <lag>    <dbl>
##  1 ACT      1Q  0.0877 
##  2 ACT      2Q  0.252  
##  3 ACT      3Q -0.0496 
##  4 ACT      4Q  0.300  
##  5 ACT      5Q -0.0741 
##  6 ACT      6Q  0.269  
##  7 ACT      7Q -0.00504
##  8 ACT      8Q  0.236  
##  9 ACT      9Q -0.0953 
## 10 ACT     10Q  0.0750 
## # … with 142 more rows
…
