…
fit <- vic_cafe %>%
  model(ets = ETS(box_cox(Turnover, 0.2)))
fit

## # A mable: 1 x 1
##            ets
##        <model>
## 1 <ETS(A,A,A)>

An ETS(A,A,A), or additive Holt-Winters model, has been selected for the transformed data. We can produce forecasts in the usual way.

fc <- fit %>% forecast(h = "3 years")
fc

## # A fable: 36 x 4 [1M]
## # Key:     .model [1]
##    .model    Month        Turnover .mean
##    <chr>     <mth>          <dist> <dbl>
##  1 ets    2019 Jan  t(N(13, 0.02))  608.
##  2 ets    2019 Feb t(N(13, 0.028))  563.
##  3 ets    2019 Mar t(N(13, 0.036))  629.
##  4 ets    2019 Apr t(N(13, 0.044))  615.
##  5 ets    2019 May t(N(13, 0.052))  613.
##  6 ets    2019 Jun t(N(13, 0.061))  593.
##  7 ets    2019 Jul t(N(13, 0.069))  624.
##  8 ets    2019 Aug t(N(13, 0.077))  640.
##  9 ets    2019 Sep t(N(13, 0.085))  630.
## 10 ets    2019 Oct t(N(13, 0.093))  642.
## # … with 26 more rows
…
Bootstrapped prediction intervals

In the preceding analysis, there was still a normality assumption for the residuals of the model applied to the transformed data. If you want to avoid that as well, you can use bootstrapped intervals. These are constructed from simulated future sample paths where the residuals are resampled as possible future errors.

We can simulate future sample paths using the generate() function.

sim <- fit %>% generate(h = "3 years", times = 5, bootstrap = TRUE)
sim

## # A tsibble: 180 x 4 [1M]
## # Key:       .model, .rep [5]
##    .model    Month .rep   .sim
##    <chr>     <mth> <chr> <dbl>
##  1 ets    2019 Jan 1      583.
##  2 ets    2019 Feb 1      600.
##  3 ets    2019 Mar 1      679.
##  4 ets    2019 Apr 1      669.
##  5 ets    2019 May 1      671.
##  6 ets    2019 Jun 1      624.
##  7 ets    2019 Jul 1      644.
##  8 ets    2019 Aug 1      689.
##  9 ets    2019 Sep 1      702.
## 10 ets    2019 Oct 1      690.
## # … with 170 more rows
…
Prediction intervals are calculated using percentiles of the future sample paths. This is all built into the forecast() function so you do not need to call generate() directly.

fc <- fit %>% forecast(h = "3 years", bootstrap = TRUE)
fc

## # A fable: 36 x 4 [1M]
## # Key:     .model [1]
##    .model    Month        Turnover .mean
##    <chr>     <mth>          <dist> <dbl>
##  1 ets    2019 Jan t(sample[5000])  608.
##  2 ets    2019 Feb t(sample[5000])  563.
##  3 ets    2019 Mar t(sample[5000])  628.
##  4 ets    2019 Apr t(sample[5000])  615.
##  5 ets    2019 May t(sample[5000])  612.
##  6 ets    2019 Jun t(sample[5000])  593.
##  7 ets    2019 Jul t(sample[5000])  624.
##  8 ets    2019 Aug t(sample[5000])  640.
##  9 ets    2019 Sep t(sample[5000])  630.
## 10 ets    2019 Oct t(sample[5000])  642.
## # … with 26 more rows
…
