…
Unfortunately, many countries do not have the processes in place to allow such data to be readily available. In Australia, for example, the most recent official deaths data is from 2018! The fact that there is no public organized national data collection for deaths during a pandemic is a sad indictment on the responsible government authorities.

Download the data

Here is some code to download and organize the data from the HMD

library(dplyr)
library(tidyr)
library(ggplot2)

stmf <- readr::read_csv("https://www.mortality.org/Public/STMF/Outputs/stmf.csv", skip=1)

stmf

## # A tibble: 29,994 x 19
##    CountryCode  Year  Week Sex   D0_14 D15_64 D65_74 D75_84  D85p DTotal
##    <chr>       <dbl> <dbl> <chr> <dbl>  <dbl>  <dbl>  <dbl> <dbl>  <dbl>
##  1 AUT          2000     1 m      6.28   184.   211.   237.  176.    814
##  2 AUT          2000     1 f      5.35   101.   141.   335.  471.   1053
##  3 AUT          2000     1 b     11.5    285.   355.   573.  643.   1867
##  4 AUT          2000     2 m      6.58   192.   217.   244.  180.    840
##  5 AUT          2000     2 f      5.81   109.   141.   335.  471.   1062
##  6 AUT          2000     2 b     12.2    302.   359.   580.  650.   1902
##  7 AUT          2000     3 m      7.73   226.   220.   248.  183.    886
##  8 AUT          2000     3 f      6.11   115.   152.   361.  507.   1141
##  9 AUT          2000     3 b     13.8    341.   378.   610.  684.   2027
## 10 AUT          2000     4 m      7.30   214.   217.   245.  181.    864
## # … with 29,984 more rows, and 9 more variables: R0_14 <dbl>,
## #   R15_64 <dbl>, R65_74 <dbl>, R75_84 <dbl>, R85p <dbl>, RTotal <dbl>,
## #   Split <dbl>, SplitSex <dbl>, Forecast <dbl>
…
The only tricky part here is in converting the age groups which are part of the column names into a variable using a regex via names_pattern.

deaths

## # A tibble: 9,998 x 4
##     year  week country deaths
##    <dbl> <dbl> <chr>    <dbl>
##  1  2000     1 Austria   1867
##  2  2000     2 Austria   1902
##  3  2000     3 Austria   2027
##  4  2000     4 Austria   1940
##  5  2000     5 Austria   1928
##  6  2000     6 Austria   1760
##  7  2000     7 Austria   1666
##  8  2000     8 Austria   1628
##  9  2000     9 Austria   1566
## 10  2000    10 Austria   1524
## # … with 9,988 more rows
…
