…
library(tidyverse)
library(tsibble)
library(readabs)

Australian data analysts will know how frustrating it is to work with time series data from the Australian Bureau of Statistics. They are stored as multiple ugly Excel files (each containing multiple sheets) with inconsistent formatting, embedded comments, meta data stored along with the actual data, dates stored in a painful Excel format, and so on.

Fortunately there is an R package available to make this a little easier.
The readabs package is maintained by Matt Cowgill from the Grattan Institute — which means it has probably had a very thorough workout!

To illustrate it, I will recreate the tsibbledata::aus_retail data, containing monthly Australian retail trade turnover for different combinations of industry and state. Here is the data as provided in the tsibbledata package.

tsibbledata::aus_retail

## # A tsibble: 64,532 x 5 [1M]
## # Key:       State, Industry [152]
##    State             Industry                 `Series ID`    Month Turnover
##    <chr>             <chr>                    <chr>          <mth>    <dbl>
##  1 Australian Capit… Cafes, restaurants and … A3349849A   1982 Apr      4.4
##  2 Australian Capit… Cafes, restaurants and … A3349849A   1982 May      3.4
##  3 Australian Capit… Cafes, restaurants and … A3349849A   1982 Jun      3.6
##  4 Australian Capit… Cafes, restaurants and … A3349849A   1982 Jul      4  
##  5 Australian Capit… Cafes, restaurants and … A3349849A   1982 Aug      3.6
##  6 Australian Capit… Cafes, restaurants and … A3349849A   1982 Sep      4.2
##  7 Australian Capit… Cafes, restaurants and … A3349849A   1982 Oct      4.8
##  8 Australian Capit… Cafes, restaurants and … A3349849A   1982 Nov      5.4
##  9 Australian Capit… Cafes, restaurants and … A3349849A   1982 Dec      6.9
## 10 Australian Capit… Cafes, restaurants and … A3349849A   1983 Jan      3.8
## # … with 64,522 more rows
…
retail1 <- read_abs("8501.0", tables = 11)

## Finding filenames for tables corresponding to ABS catalogue 8501.0

## Attempting to download files from catalogue 8501.0, Retail Trade, Australia

## Downloading https://www.abs.gov.au/statistics/industry/retail-and-wholesale-trade/retail-trade-australia/latest-release/8501011.xls

## Extracting data from downloaded spreadsheets

## Tidying data from imported ABS spreadsheets

retail1

## # A tibble: 88,263 x 12
##    table_no sheet_no table_title     date       series    value series_type
##    <chr>    <chr>    <chr>           <date>     <chr>     <dbl> <chr>      
##  1 8501011  Data1    TABLE 11. Reta… 1982-04-01 Turnover… 303.  Original   
##  2 8501011  Data1    TABLE 11. Reta… 1982-04-01 Turnover…  41.7 Original   
##  3 8501011  Data1    TABLE 11. Reta… 1982-04-01 Turnover…  63.9 Original   
##  4 8501011  Data1    TABLE 11. Reta… 1982-04-01 Turnover… 409.  Original   
##  5 8501011  Data1    TABLE 11. Reta… 1982-04-01 Turnover…  65.8 Original   
##  6 8501011  Data1    TABLE 11. Reta… 1982-04-01 Turnover…  91.8 Original   
##  7 8501011  Data1    TABLE 11. Reta… 1982-04-01 Turnover…  53.6 Original   
##  8 8501011  Data1    TABLE 11. Reta… 1982-04-01 Turnover… 211.  Original   
##  9 8501011  Data1    TABLE 11. Reta… 1982-04-01 Turnover…  94   Original   
## 10 8501011  Data1    TABLE 11. Reta… 1982-04-01 Turnover…  32.7 Original   
## # … with 88,253 more rows, and 5 more variables: data_type <chr>,
## #   collection_month <chr>, frequency <chr>, series_id <chr>, unit <chr>

Some of those columns are not particularly useful (containing a single unique value), so we will remove them. We also need to fix the date to be a Month (rather than Day), and we will match the names to tsibbledata::aus_retail to make comparisons easier.

retail1 <- retail1 %>%
  mutate(Month = yearmonth(date)) %>%
  rename(Turnover = value, `Series ID` = series_id) %>%
  select(Month, `Series ID`, series, Turnover)
retail1

## # A tibble: 88,263 x 4
##       Month `Series ID` series                                     Turnover
##       <mth> <chr>       <chr>                                         <dbl>
##  1 1982 Apr A3349335T   Turnover ;  New South Wales ;  Supermarke…    303. 
##  2 1982 Apr A3349627V   Turnover ;  New South Wales ;  Liquor ret…     41.7
##  3 1982 Apr A3349338X   Turnover ;  New South Wales ;  Other spec…     63.9
##  4 1982 Apr A3349398A   Turnover ;  New South Wales ;  Food retai…    409. 
##  5 1982 Apr A3349468W   Turnover ;  New South Wales ;  Furniture,…     65.8
##  6 1982 Apr A3349336V   Turnover ;  New South Wales ;  Electrical…     91.8
##  7 1982 Apr A3349337W   Turnover ;  New South Wales ;  Hardware, …     53.6
##  8 1982 Apr A3349397X   Turnover ;  New South Wales ;  Household …    211. 
##  9 1982 Apr A3349399C   Turnover ;  New South Wales ;  Clothing r…     94  
## 10 1982 Apr A3349874C   Turnover ;  New South Wales ;  Footwear a…     32.7
## # … with 88,253 more rows
…
Next, we turn it into a tsibble by identifying the index and key variables, and removing any missing combinations.

retail1 <- retail1 %>%
  as_tsibble(index = Month, key = c(State, Industry)) %>%
  filter(!is.na(Turnover))
retail1

## # A tsibble: 68,362 x 5 [1M]
## # Key:       State, Industry [156]
##       Month `Series ID` State             Industry                 Turnover
##       <mth> <chr>       <chr>             <chr>                       <dbl>
##  1 1982 Apr A3349849A   Australian Capit… Cafes, restaurants and …      4.4
##  2 1982 May A3349849A   Australian Capit… Cafes, restaurants and …      3.4
##  3 1982 Jun A3349849A   Australian Capit… Cafes, restaurants and …      3.6
##  4 1982 Jul A3349849A   Australian Capit… Cafes, restaurants and …      4  
##  5 1982 Aug A3349849A   Australian Capit… Cafes, restaurants and …      3.6
##  6 1982 Sep A3349849A   Australian Capit… Cafes, restaurants and …      4.2
##  7 1982 Oct A3349849A   Australian Capit… Cafes, restaurants and …      4.8
##  8 1982 Nov A3349849A   Australian Capit… Cafes, restaurants and …      5.4
##  9 1982 Dec A3349849A   Australian Capit… Cafes, restaurants and …      6.9
## 10 1983 Jan A3349849A   Australian Capit… Cafes, restaurants and …      3.8
## # … with 68,352 more rows
…
