…
The resulting monthly data set is shown below.


```r
m3_monthly
```

```
## # A tsibble: 167,562 x 3 [1M]
## # Key:       series_name [1,428]
##    series_name value    month
##    <chr>       <dbl>    <mth>
##  1 T1           2640 1990 Jan
##  2 T1           2640 1990 Feb
##  3 T1           2160 1990 Mar
##  4 T1           4200 1990 Apr
##  5 T1           3360 1990 May
##  6 T1           2400 1990 Jun
##  7 T1           3600 1990 Jul
##  8 T1           1920 1990 Aug
##  9 T1           4200 1990 Sep
## 10 T1           4560 1990 Oct
## # … with 167,552 more rows
```

The series names are `T1`, `T2`, ... The M3 data included both training and test data. These have been combined in this data set.

## Australian electricity demand data

This data set contains total half-hourly electricity demand by state from 1 January 2002 to 1 April 2015, for five states of Australia: New South Wales, Queensland, South Australia, Tasmania, and Victoria. A subset of this data (one state and only three years) is provided as `tsibbledata::vic_elec`.


```r
aus_elec <- monash_forecasting_repository(4659727)
aus_elec
```

```
## # A tsibble: 1,155,264 x 4 [30m] <UTC>
## # Key:       series_name, state [5]
##    series_name state start_timestamp     value
##    <chr>       <chr> <dttm>              <dbl>
##  1 T1          NSW   2002-01-01 00:00:00 5714.
##  2 T1          NSW   2002-01-01 00:30:00 5360.
##  3 T1          NSW   2002-01-01 01:00:00 5015.
##  4 T1          NSW   2002-01-01 01:30:00 4603.
##  5 T1          NSW   2002-01-01 02:00:00 4285.
##  6 T1          NSW   2002-01-01 02:30:00 4075.
##  7 T1          NSW   2002-01-01 03:00:00 3943.
##  8 T1          NSW   2002-01-01 03:30:00 3884.
##  9 T1          NSW   2002-01-01 04:00:00 3878.
## 10 T1          NSW   2002-01-01 04:30:00 3838.
## # … with 1,155,254 more rows
```
…
